"id","course","course_full","start","end","week","mp4_link","mp4_name","mp4_direct","srt_link","srt_path","webm_path","webm_link"
226,"thinkagain-005","Think Again: How to Reason and Argue","2015-01-05","2015-05-05","Week 1 - How to Spot an Argument","https://class.coursera.org/thinkagain-005/lecture/download.mp4?lecture_id=226","Lecture 1-1 - Why Arguments Matter (7:54)","https://class.coursera.org/thinkagain-005/lecture/view?lecture_id=226","https://class.coursera.org/thinkagain-005/lecture/subtitles?q=226_en&format=srt","data/thinkagain-005/srt/226.srt","data/thinkagain-005/webm/226.webm","http://d396qusza40orc.cloudfront.net/thinkagain/recoded_videos%2F01_01-Why%20Arguments%20Matter-7m54s.fc41f833e3c34d935a1e3e26b10d71e8.webm"
228,"thinkagain-005","Think Again: How to Reason and Argue","2015-01-05","2015-05-05","Week 1 - How to Spot an Argument","https://class.coursera.org/thinkagain-005/lecture/download.mp4?lecture_id=228","Lecture 1-2 - What is an Argument? (7:42)","https://class.coursera.org/thinkagain-005/lecture/view?lecture_id=228","https://class.coursera.org/thinkagain-005/lecture/subtitles?q=228_en&format=srt","data/thinkagain-005/srt/228.srt","data/thinkagain-005/webm/228.webm","http://d396qusza40orc.cloudfront.net/thinkagain/recoded_videos%2F01_02-What%20Is%20an%20Argument-7m42s.0af0e2eda476e801d4e1eba1de994748.webm"
230,"thinkagain-005","Think Again: How to Reason and Argue","2015-01-05","2015-05-05","Week 1 - How to Spot an Argument","https://class.coursera.org/thinkagain-005/lecture/download.mp4?lecture_id=230","Lecture 1-3 - What are Arguments Used For? Justification (5:32)","https://class.coursera.org/thinkagain-005/lecture/view?lecture_id=230","https://class.coursera.org/thinkagain-005/lecture/subtitles?q=230_en&format=srt","data/thinkagain-005/srt/230.srt","data/thinkagain-005/webm/230.webm","http://d396qusza40orc.cloudfront.net/thinkagain/recoded_videos%2F01_03-What%20Are%20Arguments%20Used%20For%20-%20Justification-5m32s.be4c2eecfe6f38cd453f8524b70fbfc9.webm"
232,"thinkagain-005","Think Again: How to Reason and Argue","2015-01-05","2015-05-05","Week 1 - How to Spot an Argument","https://class.coursera.org/thinkagain-005/lecture/download.mp4?lecture_id=232","Lecture 1-4 - Strong Arguments Don't Always Persuade Everyone (8:11)","https://class.coursera.org/thinkagain-005/lecture/view?lecture_id=232","https://class.coursera.org/thinkagain-005/lecture/subtitles?q=232_en&format=srt","data/thinkagain-005/srt/232.srt","data/thinkagain-005/webm/232.webm","http://d396qusza40orc.cloudfront.net/thinkagain/recoded_videos%2F01_04-Strong%20Arguments%20Don%27t%20Always%20Persuade%20Everyone-8m11s.2ee3dce05f7718694a52a805f683026e.webm"
234,"thinkagain-005","Think Again: How to Reason and Argue","2015-01-05","2015-05-05","Week 1 - How to Spot an Argument","https://class.coursera.org/thinkagain-005/lecture/download.mp4?lecture_id=234","Lecture 1-5 - What Else are Arguments Used For? Explanation (13:40)","https://class.coursera.org/thinkagain-005/lecture/view?lecture_id=234","https://class.coursera.org/thinkagain-005/lecture/subtitles?q=234_en&format=srt","data/thinkagain-005/srt/234.srt","data/thinkagain-005/webm/234.webm","http://d396qusza40orc.cloudfront.net/thinkagain/recoded_videos%2F01_05-What%20Else%20Are%20Arguments%20Used%20For%20-%20Explanation-13m40s.5cd7fecf3a6453878eb87c06fa431dbb.webm"
236,"thinkagain-005","Think Again: How to Reason and Argue","2015-01-05","2015-05-05","Week 1 - How to Spot an Argument","https://class.coursera.org/thinkagain-005/lecture/download.mp4?lecture_id=236","Lecture 1-6 - What are Arguments Made Of?  Language (14:10)","https://class.coursera.org/thinkagain-005/lecture/view?lecture_id=236","https://class.coursera.org/thinkagain-005/lecture/subtitles?q=236_en&format=srt","data/thinkagain-005/srt/236.srt","data/thinkagain-005/webm/236.webm","http://d396qusza40orc.cloudfront.net/thinkagain/recoded_videos%2F01_06-What%20Are%20Arguments%20Made%20Of%20-%20Language-14m10s.ef67e89e0ffbc22461e2ed89612e8f71.webm"
238,"thinkagain-005","Think Again: How to Reason and Argue","2015-01-05","2015-05-05","Week 1 - How to Spot an Argument","https://class.coursera.org/thinkagain-005/lecture/download.mp4?lecture_id=238","Lecture 1-7 - Meaning (9:02)","https://class.coursera.org/thinkagain-005/lecture/view?lecture_id=238","https://class.coursera.org/thinkagain-005/lecture/subtitles?q=238_en&format=srt","data/thinkagain-005/srt/238.srt","data/thinkagain-005/webm/238.webm","http://d396qusza40orc.cloudfront.net/thinkagain/recoded_videos%2F01_07-Meaning-9m2s.07d4728ddcbd35eecf13846ca49ae177.webm"
240,"thinkagain-005","Think Again: How to Reason and Argue","2015-01-05","2015-05-05","Week 1 - How to Spot an Argument","https://class.coursera.org/thinkagain-005/lecture/download.mp4?lecture_id=240","Lecture 1-8 - Linguistic Acts (Honors/Optional) (6:58)","https://class.coursera.org/thinkagain-005/lecture/view?lecture_id=240","https://class.coursera.org/thinkagain-005/lecture/subtitles?q=240_en&format=srt","data/thinkagain-005/srt/240.srt","data/thinkagain-005/webm/240.webm","http://d396qusza40orc.cloudfront.net/thinkagain/recoded_videos%2F01_08-Linguistic%20Acts-6m58s.f918ffceabc05c37adea0a1555d7e1c0.webm"
242,"thinkagain-005","Think Again: How to Reason and Argue","2015-01-05","2015-05-05","Week 1 - How to Spot an Argument","https://class.coursera.org/thinkagain-005/lecture/download.mp4?lecture_id=242","Lecture 1-9 - Speech Acts (Honors/Optional) (9:06)","https://class.coursera.org/thinkagain-005/lecture/view?lecture_id=242","https://class.coursera.org/thinkagain-005/lecture/subtitles?q=242_en&format=srt","data/thinkagain-005/srt/242.srt","data/thinkagain-005/webm/242.webm","http://d396qusza40orc.cloudfront.net/thinkagain/recoded_videos%2F01_09-Speech%20Acts-9m6s.5db9d48aadb52834b423934de2149363.webm"
244,"thinkagain-005","Think Again: How to Reason and Argue","2015-01-05","2015-05-05","Week 1 - How to Spot an Argument","https://class.coursera.org/thinkagain-005/lecture/download.mp4?lecture_id=244","Lecture 1-10 - Conversational Acts (Honors/Optional) (17:45)","https://class.coursera.org/thinkagain-005/lecture/view?lecture_id=244","https://class.coursera.org/thinkagain-005/lecture/subtitles?q=244_en&format=srt","data/thinkagain-005/srt/244.srt","data/thinkagain-005/webm/244.webm","http://d396qusza40orc.cloudfront.net/thinkagain/recoded_videos%2F01_10-Conversational%20Acts17m45s.b25bc4dcb083f528e11824ceff4c6715.webm"
246,"thinkagain-005","Think Again: How to Reason and Argue","2015-01-05","2015-05-05","Week 2 - How to Untangle an Argument","https://class.coursera.org/thinkagain-005/lecture/download.mp4?lecture_id=246","Lecture 2-1 - Argument Markers (12:52)","https://class.coursera.org/thinkagain-005/lecture/view?lecture_id=246","https://class.coursera.org/thinkagain-005/lecture/subtitles?q=246_en&format=srt","data/thinkagain-005/srt/246.srt","data/thinkagain-005/webm/246.webm","http://d396qusza40orc.cloudfront.net/thinkagain/recoded_videos%2F02_01-Argument%20Markers-12m52s.9850b62f214f508b092c845f378a1232.webm"
248,"thinkagain-005","Think Again: How to Reason and Argue","2015-01-05","2015-05-05","Week 2 - How to Untangle an Argument","https://class.coursera.org/thinkagain-005/lecture/download.mp4?lecture_id=248","Lecture 2-2 - Standard Form (3:29)","https://class.coursera.org/thinkagain-005/lecture/view?lecture_id=248","https://class.coursera.org/thinkagain-005/lecture/subtitles?q=248_en&format=srt","data/thinkagain-005/srt/248.srt","data/thinkagain-005/webm/248.webm","http://d396qusza40orc.cloudfront.net/thinkagain/recoded_videos%2F02_02-Standard-Form-3m29s.c1c26cec73fdd128dddc85fd6c6ca530.webm"
250,"thinkagain-005","Think Again: How to Reason and Argue","2015-01-05","2015-05-05","Week 2 - How to Untangle an Argument","https://class.coursera.org/thinkagain-005/lecture/download.mp4?lecture_id=250","Lecture 2-3 - A Problem For Arguments (12:54)","https://class.coursera.org/thinkagain-005/lecture/view?lecture_id=250","https://class.coursera.org/thinkagain-005/lecture/subtitles?q=250_en&format=srt","data/thinkagain-005/srt/250.srt","data/thinkagain-005/webm/250.webm","http://d396qusza40orc.cloudfront.net/thinkagain/recoded_videos%2F02_03-A%20Problem%20For%20Arguments-12m54s.34a32804c7ebdf753e3ecb357accc502.webm"
252,"thinkagain-005","Think Again: How to Reason and Argue","2015-01-05","2015-05-05","Week 2 - How to Untangle an Argument","https://class.coursera.org/thinkagain-005/lecture/download.mp4?lecture_id=252","Lecture 2-4 - Assuring (14:15)","https://class.coursera.org/thinkagain-005/lecture/view?lecture_id=252","https://class.coursera.org/thinkagain-005/lecture/subtitles?q=252_en&format=srt","data/thinkagain-005/srt/252.srt","data/thinkagain-005/webm/252.webm","http://d396qusza40orc.cloudfront.net/thinkagain/recoded_videos%2F02_04-Assuring14m15s.bfc643c5a5969ce8485bf146df38296c.webm"
254,"thinkagain-005","Think Again: How to Reason and Argue","2015-01-05","2015-05-05","Week 2 - How to Untangle an Argument","https://class.coursera.org/thinkagain-005/lecture/download.mp4?lecture_id=254","Lecture 2-5 - Guarding (8:01)","https://class.coursera.org/thinkagain-005/lecture/view?lecture_id=254","https://class.coursera.org/thinkagain-005/lecture/subtitles?q=254_en&format=srt","data/thinkagain-005/srt/254.srt","data/thinkagain-005/webm/254.webm","http://d396qusza40orc.cloudfront.net/thinkagain/recoded_videos%2F02_05-Guarding-8m1s.5367681b5417da05623f4e7a45a07989.webm"
256,"thinkagain-005","Think Again: How to Reason and Argue","2015-01-05","2015-05-05","Week 2 - How to Untangle an Argument","https://class.coursera.org/thinkagain-005/lecture/download.mp4?lecture_id=256","Lecture 2-6 - Discounting (10:20)","https://class.coursera.org/thinkagain-005/lecture/view?lecture_id=256","https://class.coursera.org/thinkagain-005/lecture/subtitles?q=256_en&format=srt","data/thinkagain-005/srt/256.srt","data/thinkagain-005/webm/256.webm","http://d396qusza40orc.cloudfront.net/thinkagain/recoded_videos%2F02_06-Discounting-10m20s.cca7ec6732527df9964f12700d23c3f6.webm"
258,"thinkagain-005","Think Again: How to Reason and Argue","2015-01-05","2015-05-05","Week 2 - How to Untangle an Argument","https://class.coursera.org/thinkagain-005/lecture/download.mp4?lecture_id=258","Lecture 2-7 - Evaluation (17:06)","https://class.coursera.org/thinkagain-005/lecture/view?lecture_id=258","https://class.coursera.org/thinkagain-005/lecture/subtitles?q=258_en&format=srt","data/thinkagain-005/srt/258.srt","data/thinkagain-005/webm/258.webm","http://d396qusza40orc.cloudfront.net/thinkagain/recoded_videos%2F02_07-Evaluation-17m6s.34b8d69f0706bf9b4820a6f7585fd0cc.webm"
260,"thinkagain-005","Think Again: How to Reason and Argue","2015-01-05","2015-05-05","Week 2 - How to Untangle an Argument","https://class.coursera.org/thinkagain-005/lecture/download.mp4?lecture_id=260","Lecture 2-8 - Close Analysis Part I (20:00)","https://class.coursera.org/thinkagain-005/lecture/view?lecture_id=260","https://class.coursera.org/thinkagain-005/lecture/subtitles?q=260_en&format=srt","data/thinkagain-005/srt/260.srt","data/thinkagain-005/webm/260.webm","http://d396qusza40orc.cloudfront.net/thinkagain/recoded_videos%2F02_08-Close%20Analysis%20-%20Part%20I-20m.fea3bc13c456c5561ca84c72dea22141.webm"
262,"thinkagain-005","Think Again: How to Reason and Argue","2015-01-05","2015-05-05","Week 2 - How to Untangle an Argument","https://class.coursera.org/thinkagain-005/lecture/download.mp4?lecture_id=262","Lecture 2-9 - Close Analysis Part II (13:12)","https://class.coursera.org/thinkagain-005/lecture/view?lecture_id=262","https://class.coursera.org/thinkagain-005/lecture/subtitles?q=262_en&format=srt","data/thinkagain-005/srt/262.srt","data/thinkagain-005/webm/262.webm","http://d396qusza40orc.cloudfront.net/thinkagain/recoded_videos%2F02_09-Close%20Analysis%20-%20Part%20II-13m12s.bb1784978c8c92becfb932c0090531c5.webm"
264,"thinkagain-005","Think Again: How to Reason and Argue","2015-01-05","2015-05-05","Week 2 - How to Untangle an Argument","https://class.coursera.org/thinkagain-005/lecture/download.mp4?lecture_id=264","Lecture 2-10 - More Close Analysis (17:11)","https://class.coursera.org/thinkagain-005/lecture/view?lecture_id=264","https://class.coursera.org/thinkagain-005/lecture/subtitles?q=264_en&format=srt","data/thinkagain-005/srt/264.srt","data/thinkagain-005/webm/264.webm","http://d396qusza40orc.cloudfront.net/thinkagain/recoded_videos%2F02_10-More%20Close%20Analysis-17m11s.567fb0f1a6b92424e4dfd82b529195dc.webm"
266,"thinkagain-005","Think Again: How to Reason and Argue","2015-01-05","2015-05-05","Week 3 - How to Reconstruct an Argument","https://class.coursera.org/thinkagain-005/lecture/download.mp4?lecture_id=266","Lecture 3-1 - Validity (24:19)","https://class.coursera.org/thinkagain-005/lecture/view?lecture_id=266","https://class.coursera.org/thinkagain-005/lecture/subtitles?q=266_en&format=srt","data/thinkagain-005/srt/266.srt","data/thinkagain-005/webm/266.webm","http://d396qusza40orc.cloudfront.net/thinkagain/recoded_videos%2F03_01-Validity-24m19s.6191742960f162fd8783ddf84b691c7a.webm"
268,"thinkagain-005","Think Again: How to Reason and Argue","2015-01-05","2015-05-05","Week 3 - How to Reconstruct an Argument","https://class.coursera.org/thinkagain-005/lecture/download.mp4?lecture_id=268","Lecture 3-2 - Soundness (4:29)","https://class.coursera.org/thinkagain-005/lecture/view?lecture_id=268","https://class.coursera.org/thinkagain-005/lecture/subtitles?q=268_en&format=srt","data/thinkagain-005/srt/268.srt","data/thinkagain-005/webm/268.webm","http://d396qusza40orc.cloudfront.net/thinkagain/recoded_videos%2F03_02-Soundness-4m29s.875ff000c0c6338dc9efd4152d1e00ce.webm"
270,"thinkagain-005","Think Again: How to Reason and Argue","2015-01-05","2015-05-05","Week 3 - How to Reconstruct an Argument","https://class.coursera.org/thinkagain-005/lecture/download.mp4?lecture_id=270","Lecture 3-3 - Get Down to Basics (21:34)","https://class.coursera.org/thinkagain-005/lecture/view?lecture_id=270","https://class.coursera.org/thinkagain-005/lecture/subtitles?q=270_en&format=srt","data/thinkagain-005/srt/270.srt","data/thinkagain-005/webm/270.webm","http://d396qusza40orc.cloudfront.net/thinkagain/recoded_videos%2F03_03-Get%20Down%20to%20Basics-21m34s.675e0a65e8a8baca6511a81b805d4296.webm"
272,"thinkagain-005","Think Again: How to Reason and Argue","2015-01-05","2015-05-05","Week 3 - How to Reconstruct an Argument","https://class.coursera.org/thinkagain-005/lecture/download.mp4?lecture_id=272","Lecture 3-4 - Sharpen Edges (17:19)","https://class.coursera.org/thinkagain-005/lecture/view?lecture_id=272","https://class.coursera.org/thinkagain-005/lecture/subtitles?q=272_en&format=srt","data/thinkagain-005/srt/272.srt","data/thinkagain-005/webm/272.webm","http://d396qusza40orc.cloudfront.net/thinkagain/recoded_videos%2F03_04-Sharpen%20Edges-17m19s.b778269137a3038a7843f61b4037cda6.webm"
274,"thinkagain-005","Think Again: How to Reason and Argue","2015-01-05","2015-05-05","Week 3 - How to Reconstruct an Argument","https://class.coursera.org/thinkagain-005/lecture/download.mp4?lecture_id=274","Lecture 3-5 - Organize Parts (14:48)","https://class.coursera.org/thinkagain-005/lecture/view?lecture_id=274","https://class.coursera.org/thinkagain-005/lecture/subtitles?q=274_en&format=srt","data/thinkagain-005/srt/274.srt","data/thinkagain-005/webm/274.webm","http://d396qusza40orc.cloudfront.net/thinkagain/recoded_videos%2F03_05-Organize%20Parts-14m48s.bae37e6c8389b7d3d86f26cf8ef5f931.webm"
464,"thinkagain-005","Think Again: How to Reason and Argue","2015-01-05","2015-05-05","Week 3 - How to Reconstruct an Argument","https://class.coursera.org/thinkagain-005/lecture/download.mp4?lecture_id=464","Lecture 3-6 - Student Examples of Argument Structures about Smartphones (11:04)","https://class.coursera.org/thinkagain-005/lecture/view?lecture_id=464","https://class.coursera.org/thinkagain-005/lecture/subtitles?q=464_en&format=srt","data/thinkagain-005/srt/464.srt","data/thinkagain-005/webm/464.webm","http://d396qusza40orc.cloudfront.net/thinkagain/recoded_videos%2F12_02-A%20Debate%20About%20Smartphones%20in%20Class-11m4s.4e4bc4816edb135949582084731186af.webm"
276,"thinkagain-005","Think Again: How to Reason and Argue","2015-01-05","2015-05-05","Week 3 - How to Reconstruct an Argument","https://class.coursera.org/thinkagain-005/lecture/download.mp4?lecture_id=276","Lecture 3-7 - Fill in Gaps (22:51)","https://class.coursera.org/thinkagain-005/lecture/view?lecture_id=276","https://class.coursera.org/thinkagain-005/lecture/subtitles?q=276_en&format=srt","data/thinkagain-005/srt/276.srt","data/thinkagain-005/webm/276.webm","http://d396qusza40orc.cloudfront.net/thinkagain/recoded_videos%2F03_06-Fill%20in%20Gaps.595218647c32bbcb630834218cf58ecd.webm"
278,"thinkagain-005","Think Again: How to Reason and Argue","2015-01-05","2015-05-05","Week 3 - How to Reconstruct an Argument","https://class.coursera.org/thinkagain-005/lecture/download.mp4?lecture_id=278","Lecture 3-8 - Conclude (2:00)","https://class.coursera.org/thinkagain-005/lecture/view?lecture_id=278","https://class.coursera.org/thinkagain-005/lecture/subtitles?q=278_en&format=srt","data/thinkagain-005/srt/278.srt","data/thinkagain-005/webm/278.webm","http://d396qusza40orc.cloudfront.net/thinkagain/recoded_videos%2F03_07-Conclude-2m.1ae0e8ed08dab3a58fcff9aa9245d05e.webm"
280,"thinkagain-005","Think Again: How to Reason and Argue","2015-01-05","2015-05-05","Week 3 - How to Reconstruct an Argument","https://class.coursera.org/thinkagain-005/lecture/download.mp4?lecture_id=280","Lecture 3-9 - An Example of Reconstruction - Part I (9:14)","https://class.coursera.org/thinkagain-005/lecture/view?lecture_id=280","https://class.coursera.org/thinkagain-005/lecture/subtitles?q=280_en&format=srt","data/thinkagain-005/srt/280.srt","data/thinkagain-005/webm/280.webm","http://d396qusza40orc.cloudfront.net/thinkagain/recoded_videos%2F03_08-An%20Example%20of%20Reconstruction%20-%20Part%20I-9m14s.e691539b856958fa6abb5acc54d68b2c.webm"
282,"thinkagain-005","Think Again: How to Reason and Argue","2015-01-05","2015-05-05","Week 3 - How to Reconstruct an Argument","https://class.coursera.org/thinkagain-005/lecture/download.mp4?lecture_id=282","Lecture 3-10 - An Example of Reconstruction - Part II (9:36)","https://class.coursera.org/thinkagain-005/lecture/view?lecture_id=282","https://class.coursera.org/thinkagain-005/lecture/subtitles?q=282_en&format=srt","data/thinkagain-005/srt/282.srt","data/thinkagain-005/webm/282.webm","http://d396qusza40orc.cloudfront.net/thinkagain/recoded_videos%2F03_09-An%20Example%20of%20Reconstruction%20-%20Part%20II-9m36s.f9a9281857fd68629b5eec3461dab3a5.webm"
284,"thinkagain-005","Think Again: How to Reason and Argue","2015-01-05","2015-05-05","Week 3 - How to Reconstruct an Argument","https://class.coursera.org/thinkagain-005/lecture/download.mp4?lecture_id=284","Lecture 3-11 - An Example of Reconstruction - Part III (10:03)","https://class.coursera.org/thinkagain-005/lecture/view?lecture_id=284","https://class.coursera.org/thinkagain-005/lecture/subtitles?q=284_en&format=srt","data/thinkagain-005/srt/284.srt","data/thinkagain-005/webm/284.webm","http://d396qusza40orc.cloudfront.net/thinkagain/recoded_videos%2F03_10-An%20Example%20of%20Reconstruction%20-%20Part%20III-10m3s.dfffe1cdbf17e88da70f9ba4085742ef.webm"
310,"thinkagain-005","Think Again: How to Reason and Argue","2015-01-05","2015-05-05","Week 4 - Propositional Logic and Truth Tables","https://class.coursera.org/thinkagain-005/lecture/download.mp4?lecture_id=310","Lecture 4-1 - Introduction to Deductive Logic (10:27)","https://class.coursera.org/thinkagain-005/lecture/view?lecture_id=310","https://class.coursera.org/thinkagain-005/lecture/subtitles?q=310_en&format=srt","data/thinkagain-005/srt/310.srt","data/thinkagain-005/webm/310.webm","http://d396qusza40orc.cloudfront.net/thinkagain/recoded_videos%2F04_01-Introduction%20to%20Deductive%20Logic.2dad1d8ed82f7f83f2d908757ebeec60.webm"
312,"thinkagain-005","Think Again: How to Reason and Argue","2015-01-05","2015-05-05","Week 4 - Propositional Logic and Truth Tables","https://class.coursera.org/thinkagain-005/lecture/download.mp4?lecture_id=312","Lecture 4-2 - Propositions and Propositional Connectives (4:42)","https://class.coursera.org/thinkagain-005/lecture/view?lecture_id=312","https://class.coursera.org/thinkagain-005/lecture/subtitles?q=312_en&format=srt","data/thinkagain-005/srt/312.srt","data/thinkagain-005/webm/312.webm","http://d396qusza40orc.cloudfront.net/thinkagain/recoded_videos%2F04_02-Propositions%20and%20Propositional%20Connectives.cd6922518c039b2c57e136ac2224047f.webm"
314,"thinkagain-005","Think Again: How to Reason and Argue","2015-01-05","2015-05-05","Week 4 - Propositional Logic and Truth Tables","https://class.coursera.org/thinkagain-005/lecture/download.mp4?lecture_id=314","Lecture 4-3 - \"And\" and the Truth-Functional Connectives (10:52)","https://class.coursera.org/thinkagain-005/lecture/view?lecture_id=314","https://class.coursera.org/thinkagain-005/lecture/subtitles?q=314_en&format=srt","data/thinkagain-005/srt/314.srt","data/thinkagain-005/webm/314.webm","http://d396qusza40orc.cloudfront.net/thinkagain/recoded_videos%2F04_03-And%20the%20Truth-Functional%20Connectives.c07cf4f9b6e5be5ff00b02d9d534bbf1.webm"
316,"thinkagain-005","Think Again: How to Reason and Argue","2015-01-05","2015-05-05","Week 4 - Propositional Logic and Truth Tables","https://class.coursera.org/thinkagain-005/lecture/download.mp4?lecture_id=316","Lecture 4-4 - Using Truth Tables to Show Validity (5:02)","https://class.coursera.org/thinkagain-005/lecture/view?lecture_id=316","https://class.coursera.org/thinkagain-005/lecture/subtitles?q=316_en&format=srt","data/thinkagain-005/srt/316.srt","data/thinkagain-005/webm/316.webm","http://d396qusza40orc.cloudfront.net/thinkagain/recoded_videos%2F04_04-Using%20Truth%20Tables%20to%20Show%20Validity.6145a9bbb57e2af9fd1057fd3be7c9e1.webm"
474,"thinkagain-005","Think Again: How to Reason and Argue","2015-01-05","2015-05-05","Week 4 - Propositional Logic and Truth Tables","https://class.coursera.org/thinkagain-005/lecture/download.mp4?lecture_id=474","Lecture 4-5 - Rules Variables and Generality (12:39)","https://class.coursera.org/thinkagain-005/lecture/view?lecture_id=474","https://class.coursera.org/thinkagain-005/lecture/subtitles?q=474_en&format=srt","data/thinkagain-005/srt/474.srt","data/thinkagain-005/webm/474.webm","http://d396qusza40orc.cloudfront.net/thinkagain/recoded_videos%2F04_05-Rules%20Variables%20and%20Generality-12m39s.3dabe59bc3cc9b5448c8628fec3887c8.webm"
318,"thinkagain-005","Think Again: How to Reason and Argue","2015-01-05","2015-05-05","Week 4 - Propositional Logic and Truth Tables","https://class.coursera.org/thinkagain-005/lecture/download.mp4?lecture_id=318","Lecture 4-6 - Disjunction (10:38)","https://class.coursera.org/thinkagain-005/lecture/view?lecture_id=318","https://class.coursera.org/thinkagain-005/lecture/subtitles?q=318_en&format=srt","data/thinkagain-005/srt/318.srt","data/thinkagain-005/webm/318.webm","http://d396qusza40orc.cloudfront.net/thinkagain/recoded_videos%2F04_05-Disjunction.6b145c8174e719924a8b1d1a3bdc041e.webm"
320,"thinkagain-005","Think Again: How to Reason and Argue","2015-01-05","2015-05-05","Week 4 - Propositional Logic and Truth Tables","https://class.coursera.org/thinkagain-005/lecture/download.mp4?lecture_id=320","Lecture 4-7 - Combining Conjunctions and Disjunctions (6:23)","https://class.coursera.org/thinkagain-005/lecture/view?lecture_id=320","https://class.coursera.org/thinkagain-005/lecture/subtitles?q=320_en&format=srt","data/thinkagain-005/srt/320.srt","data/thinkagain-005/webm/320.webm","http://d396qusza40orc.cloudfront.net/thinkagain/recoded_videos%2F04_06-Combining%20Conjunctions%20and%20Disjunctions.fd21e396ba853d811d2092e10dddb817.webm"
322,"thinkagain-005","Think Again: How to Reason and Argue","2015-01-05","2015-05-05","Week 4 - Propositional Logic and Truth Tables","https://class.coursera.org/thinkagain-005/lecture/download.mp4?lecture_id=322","Lecture 4-8 - Negation and Truth Functional Operators (7:23)","https://class.coursera.org/thinkagain-005/lecture/view?lecture_id=322","https://class.coursera.org/thinkagain-005/lecture/subtitles?q=322_en&format=srt","data/thinkagain-005/srt/322.srt","data/thinkagain-005/webm/322.webm","http://d396qusza40orc.cloudfront.net/thinkagain/recoded_videos%2F04_07-Negation%20and%20Truth%20Functional%20Operators.43f405c18707df03b2f27dba32f71dd0.webm"
324,"thinkagain-005","Think Again: How to Reason and Argue","2015-01-05","2015-05-05","Week 4 - Propositional Logic and Truth Tables","https://class.coursera.org/thinkagain-005/lecture/download.mp4?lecture_id=324","Lecture 4-9 - Negating Conjuctions and Disjunctions (3:34)","https://class.coursera.org/thinkagain-005/lecture/view?lecture_id=324","https://class.coursera.org/thinkagain-005/lecture/subtitles?q=324_en&format=srt","data/thinkagain-005/srt/324.srt","data/thinkagain-005/webm/324.webm","http://d396qusza40orc.cloudfront.net/thinkagain/recoded_videos%2F04_08-Negating%20Conjuctions%20and%20Disjunctions.d5d574756e1f24c9b3f3d2ee5652afd8.webm"
472,"thinkagain-005","Think Again: How to Reason and Argue","2015-01-05","2015-05-05","Week 4 - Propositional Logic and Truth Tables","https://class.coursera.org/thinkagain-005/lecture/download.mp4?lecture_id=472","Lecture 4-10 - Commutativity and Associativity (10:31)","https://class.coursera.org/thinkagain-005/lecture/view?lecture_id=472","https://class.coursera.org/thinkagain-005/lecture/subtitles?q=472_en&format=srt","data/thinkagain-005/srt/472.srt","data/thinkagain-005/webm/472.webm","http://d396qusza40orc.cloudfront.net/thinkagain/recoded_videos%2F04_14-Commutativity%20and%20Associativity-10m31s.61121a503861b8dad3d1d8de1dbc74e4.webm"
326,"thinkagain-005","Think Again: How to Reason and Argue","2015-01-05","2015-05-05","Week 4 - Propositional Logic and Truth Tables","https://class.coursera.org/thinkagain-005/lecture/download.mp4?lecture_id=326","Lecture 4-11 - The Conditional (14:27)","https://class.coursera.org/thinkagain-005/lecture/view?lecture_id=326","https://class.coursera.org/thinkagain-005/lecture/subtitles?q=326_en&format=srt","data/thinkagain-005/srt/326.srt","data/thinkagain-005/webm/326.webm","http://d396qusza40orc.cloudfront.net/thinkagain/recoded_videos%2F04_09-The%20Conditional.f3dcdbdf30ca18da2adedd48abcb25e8.webm"
328,"thinkagain-005","Think Again: How to Reason and Argue","2015-01-05","2015-05-05","Week 4 - Propositional Logic and Truth Tables","https://class.coursera.org/thinkagain-005/lecture/download.mp4?lecture_id=328","Lecture 4-12 - Conditionals in ordinary language (3:33)","https://class.coursera.org/thinkagain-005/lecture/view?lecture_id=328","https://class.coursera.org/thinkagain-005/lecture/subtitles?q=328_en&format=srt","data/thinkagain-005/srt/328.srt","data/thinkagain-005/webm/328.webm","http://d396qusza40orc.cloudfront.net/thinkagain/recoded_videos%2F04_10-Conditionals%20in%20ordinary%20language.5102c5dfc231d0bdc4201c61295885fe.webm"
330,"thinkagain-005","Think Again: How to Reason and Argue","2015-01-05","2015-05-05","Week 4 - Propositional Logic and Truth Tables","https://class.coursera.org/thinkagain-005/lecture/download.mp4?lecture_id=330","Lecture 4-13 - Biconditionals (7:19)","https://class.coursera.org/thinkagain-005/lecture/view?lecture_id=330","https://class.coursera.org/thinkagain-005/lecture/subtitles?q=330_en&format=srt","data/thinkagain-005/srt/330.srt","data/thinkagain-005/webm/330.webm","http://d396qusza40orc.cloudfront.net/thinkagain/recoded_videos%2F04_11-Biconditionals.f58d51b3c9e2e9921678cf974250511f.webm"
332,"thinkagain-005","Think Again: How to Reason and Argue","2015-01-05","2015-05-05","Week 4 - Propositional Logic and Truth Tables","https://class.coursera.org/thinkagain-005/lecture/download.mp4?lecture_id=332","Lecture 4-14 - Conclusion (1:13)","https://class.coursera.org/thinkagain-005/lecture/view?lecture_id=332","https://class.coursera.org/thinkagain-005/lecture/subtitles?q=332_en&format=srt","data/thinkagain-005/srt/332.srt","data/thinkagain-005/webm/332.webm","http://d396qusza40orc.cloudfront.net/thinkagain/recoded_videos%2F04_12-Conclusion.7ebd33c69e2634136fd94be7d03cefe3.webm"
334,"thinkagain-005","Think Again: How to Reason and Argue","2015-01-05","2015-05-05","Week 5 - Categorical Logic and Syllogisms","https://class.coursera.org/thinkagain-005/lecture/download.mp4?lecture_id=334","Lecture 5-1 - Categorical Logic (10:36)","https://class.coursera.org/thinkagain-005/lecture/view?lecture_id=334","https://class.coursera.org/thinkagain-005/lecture/subtitles?q=334_en&format=srt","data/thinkagain-005/srt/334.srt","data/thinkagain-005/webm/334.webm","http://d396qusza40orc.cloudfront.net/thinkagain/recoded_videos%2F05_01-Categorical%20Logic-10m36s.69e8d12e7cde4d37fbfc9cce88a39709.webm"
336,"thinkagain-005","Think Again: How to Reason and Argue","2015-01-05","2015-05-05","Week 5 - Categorical Logic and Syllogisms","https://class.coursera.org/thinkagain-005/lecture/download.mp4?lecture_id=336","Lecture 5-2 - Categories and Quantifiers (17:43)","https://class.coursera.org/thinkagain-005/lecture/view?lecture_id=336","https://class.coursera.org/thinkagain-005/lecture/subtitles?q=336_en&format=srt","data/thinkagain-005/srt/336.srt","data/thinkagain-005/webm/336.webm","http://d396qusza40orc.cloudfront.net/thinkagain/recoded_videos%2F05_02-Categories%20and%20Quantifiers-17m43s.e1704119c17875e9b0c9346d3f6af4e0.webm"
338,"thinkagain-005","Think Again: How to Reason and Argue","2015-01-05","2015-05-05","Week 5 - Categorical Logic and Syllogisms","https://class.coursera.org/thinkagain-005/lecture/download.mp4?lecture_id=338","Lecture 5-3 - How Quantifiers Modify Categories (9:56)","https://class.coursera.org/thinkagain-005/lecture/view?lecture_id=338","https://class.coursera.org/thinkagain-005/lecture/subtitles?q=338_en&format=srt","data/thinkagain-005/srt/338.srt","data/thinkagain-005/webm/338.webm","http://d396qusza40orc.cloudfront.net/thinkagain/recoded_videos%2F05_03-How%20Quantifiers%20Modify%20Categories-9m56s.ff11b8201e7b944e41cac4e38554f849.webm"
340,"thinkagain-005","Think Again: How to Reason and Argue","2015-01-05","2015-05-05","Week 5 - Categorical Logic and Syllogisms","https://class.coursera.org/thinkagain-005/lecture/download.mp4?lecture_id=340","Lecture 5-4 - Immediate Categorical Inferences (10:37)","https://class.coursera.org/thinkagain-005/lecture/view?lecture_id=340","https://class.coursera.org/thinkagain-005/lecture/subtitles?q=340_en&format=srt","data/thinkagain-005/srt/340.srt","data/thinkagain-005/webm/340.webm","http://d396qusza40orc.cloudfront.net/thinkagain/recoded_videos%2F05_04-Immediate%20Categorical%20Differences-10m37s.4721c26317a0b70b6ec47e4693617e7f.webm"
342,"thinkagain-005","Think Again: How to Reason and Argue","2015-01-05","2015-05-05","Week 5 - Categorical Logic and Syllogisms","https://class.coursera.org/thinkagain-005/lecture/download.mp4?lecture_id=342","Lecture 5-5 - Syllogisms (9:51)","https://class.coursera.org/thinkagain-005/lecture/view?lecture_id=342","https://class.coursera.org/thinkagain-005/lecture/subtitles?q=342_en&format=srt","data/thinkagain-005/srt/342.srt","data/thinkagain-005/webm/342.webm","http://d396qusza40orc.cloudfront.net/thinkagain/recoded_videos%2F05_05-Syllogisms-9m51s.031e7718b0884cbe4371cf2e5dc7066a.webm"
344,"thinkagain-005","Think Again: How to Reason and Argue","2015-01-05","2015-05-05","Week 5 - Categorical Logic and Syllogisms","https://class.coursera.org/thinkagain-005/lecture/download.mp4?lecture_id=344","Lecture 5-6 - Categories, Individuals, and Language (4:57)","https://class.coursera.org/thinkagain-005/lecture/view?lecture_id=344","https://class.coursera.org/thinkagain-005/lecture/subtitles?q=344_en&format=srt","data/thinkagain-005/srt/344.srt","data/thinkagain-005/webm/344.webm","http://d396qusza40orc.cloudfront.net/thinkagain/recoded_videos%2F05_06-Categories%2C%20Individuals%2C%20and%20Language-4m57s.f35a65440af95bf356675f66934fad05.webm"
346,"thinkagain-005","Think Again: How to Reason and Argue","2015-01-05","2015-05-05","Week 5 - Categorical Logic and Syllogisms","https://class.coursera.org/thinkagain-005/lecture/download.mp4?lecture_id=346","Lecture 5-7 - Venn Diagrams and Validity (13:30)","https://class.coursera.org/thinkagain-005/lecture/view?lecture_id=346","https://class.coursera.org/thinkagain-005/lecture/subtitles?q=346_en&format=srt","data/thinkagain-005/srt/346.srt","data/thinkagain-005/webm/346.webm","http://d396qusza40orc.cloudfront.net/thinkagain/recoded_videos%2F05_07-Venn%20Diagrams%20and%20Validity-13m30s.6e17e4c2dbab2c8bd757b79ec1533661.webm"
348,"thinkagain-005","Think Again: How to Reason and Argue","2015-01-05","2015-05-05","Week 5 - Categorical Logic and Syllogisms","https://class.coursera.org/thinkagain-005/lecture/download.mp4?lecture_id=348","Lecture 5-8 - Other Ways of Expressing A, E, I, or O Propositions (7:14)","https://class.coursera.org/thinkagain-005/lecture/view?lecture_id=348","https://class.coursera.org/thinkagain-005/lecture/subtitles?q=348_en&format=srt","data/thinkagain-005/srt/348.srt","data/thinkagain-005/webm/348.webm","http://d396qusza40orc.cloudfront.net/thinkagain/recoded_videos%2F05_08-Other%20Ways%20of%20Expressing%20A%2C%20E%2C%20I%2C%20or%20O%20Propositions-7m14s.a0a3db01ca1b5a2cc92cdd7faaa18321.webm"
352,"thinkagain-005","Think Again: How to Reason and Argue","2015-01-05","2015-05-05","Week 6 - Representing Information","https://class.coursera.org/thinkagain-005/lecture/download.mp4?lecture_id=352","Lecture 6-1 - Reasoning from Venn Diagrams or Truth Tables Alone (14:54)","https://class.coursera.org/thinkagain-005/lecture/view?lecture_id=352","https://class.coursera.org/thinkagain-005/lecture/subtitles?q=352_en&format=srt","data/thinkagain-005/srt/352.srt","data/thinkagain-005/webm/352.webm","http://d396qusza40orc.cloudfront.net/thinkagain/recoded_videos%2F05_09-Reasoning%20from%20Venn%20Diagrams%20or%20Truth%20Tables%20Alone-14m54s.7f1af24d397e953814f05d8d4938ed0f.webm"
470,"thinkagain-005","Think Again: How to Reason and Argue","2015-01-05","2015-05-05","Week 6 - Representing Information","https://class.coursera.org/thinkagain-005/lecture/download.mp4?lecture_id=470","Lecture 6-2 - Different Ways of Representing Information","https://class.coursera.org/thinkagain-005/lecture/view?lecture_id=470","https://class.coursera.org/thinkagain-005/lecture/subtitles?q=470_en&format=srt","data/thinkagain-005/srt/470.srt","data/thinkagain-005/webm/470.webm","http://d396qusza40orc.cloudfront.net/thinkagain/recoded_videos%2F06_02-Different%20Ways%20of%20Representing%20Information.22b3e19c36bdec1733fcbecd57791b4c.webm"
94,"thinkagain-005","Think Again: How to Reason and Argue","2015-01-05","2015-05-05","Week 7 - Inductive Arguments","https://class.coursera.org/thinkagain-005/lecture/download.mp4?lecture_id=94","Lecture 7-1 - What is Induction? (14:46)","https://class.coursera.org/thinkagain-005/lecture/view?lecture_id=94","https://class.coursera.org/thinkagain-005/lecture/subtitles?q=94_en&format=srt","data/thinkagain-005/srt/094.srt","data/thinkagain-005/webm/094.webm","http://d396qusza40orc.cloudfront.net/thinkagain/recoded_videos%2F06_01-What%20Is%20Induction.afa16af92e5941d6d390bb0fc7e3207c.webm"
96,"thinkagain-005","Think Again: How to Reason and Argue","2015-01-05","2015-05-05","Week 7 - Inductive Arguments","https://class.coursera.org/thinkagain-005/lecture/download.mp4?lecture_id=96","Lecture 7-2 - Generalizations from Samples (9:11)","https://class.coursera.org/thinkagain-005/lecture/view?lecture_id=96","https://class.coursera.org/thinkagain-005/lecture/subtitles?q=96_en&format=srt","data/thinkagain-005/srt/096.srt","data/thinkagain-005/webm/096.webm","http://d396qusza40orc.cloudfront.net/thinkagain/recoded_videos%2F06_02-Generalizations%20From%20Samples.2dbcf7fd6106b8f49597768630ade0eb.webm"
98,"thinkagain-005","Think Again: How to Reason and Argue","2015-01-05","2015-05-05","Week 7 - Inductive Arguments","https://class.coursera.org/thinkagain-005/lecture/download.mp4?lecture_id=98","Lecture 7-3 - When are Generalizations Strong? (20:48)","https://class.coursera.org/thinkagain-005/lecture/view?lecture_id=98","https://class.coursera.org/thinkagain-005/lecture/subtitles?q=98_en&format=srt","data/thinkagain-005/srt/098.srt","data/thinkagain-005/webm/098.webm","http://d396qusza40orc.cloudfront.net/thinkagain/recoded_videos%2F06_03-When%20Are%20Generalizations%20Strong.d47a7ac8b6f508efda5f7f3d54834149.webm"
100,"thinkagain-005","Think Again: How to Reason and Argue","2015-01-05","2015-05-05","Week 7 - Inductive Arguments","https://class.coursera.org/thinkagain-005/lecture/download.mp4?lecture_id=100","Lecture 7-4 - Applying Generalizations (17:52)","https://class.coursera.org/thinkagain-005/lecture/view?lecture_id=100","https://class.coursera.org/thinkagain-005/lecture/subtitles?q=100_en&format=srt","data/thinkagain-005/srt/100.srt","data/thinkagain-005/webm/100.webm","http://d396qusza40orc.cloudfront.net/thinkagain/recoded_videos%2F06_04-Applying-Generalizations.9615d8d5ac1c714aaad12fd0af4c785f.webm"
102,"thinkagain-005","Think Again: How to Reason and Argue","2015-01-05","2015-05-05","Week 7 - Inductive Arguments","https://class.coursera.org/thinkagain-005/lecture/download.mp4?lecture_id=102","Lecture 7-6 - Inference to the Best Explanation (8:14)","https://class.coursera.org/thinkagain-005/lecture/view?lecture_id=102","https://class.coursera.org/thinkagain-005/lecture/subtitles?q=102_en&format=srt","data/thinkagain-005/srt/102.srt","data/thinkagain-005/webm/102.webm","http://d396qusza40orc.cloudfront.net/thinkagain/recoded_videos%2F06_05-Inference%20to%20the%20Best%20Explanation.33031bf5d662bebfed86cef8004bc7bd.webm"
104,"thinkagain-005","Think Again: How to Reason and Argue","2015-01-05","2015-05-05","Week 7 - Inductive Arguments","https://class.coursera.org/thinkagain-005/lecture/download.mp4?lecture_id=104","Lecture 7-7 - Which Explanation is Best? (14:45)","https://class.coursera.org/thinkagain-005/lecture/view?lecture_id=104","https://class.coursera.org/thinkagain-005/lecture/subtitles?q=104_en&format=srt","data/thinkagain-005/srt/104.srt","data/thinkagain-005/webm/104.webm","http://d396qusza40orc.cloudfront.net/thinkagain/recoded_videos%2F06_06-Which%20Explanation%20Is%20Best.bd0725c1718c0303186d13af781aea4c.webm"
106,"thinkagain-005","Think Again: How to Reason and Argue","2015-01-05","2015-05-05","Week 7 - Inductive Arguments","https://class.coursera.org/thinkagain-005/lecture/download.mp4?lecture_id=106","Lecture 7-8 - A Student Example of Inference to the Best Explanation (8:19)","https://class.coursera.org/thinkagain-005/lecture/view?lecture_id=106","https://class.coursera.org/thinkagain-005/lecture/subtitles?q=106_en&format=srt","data/thinkagain-005/srt/106.srt","data/thinkagain-005/webm/106.webm","http://d396qusza40orc.cloudfront.net/thinkagain/recoded_videos%2F06_07-A%20Student%20Example%20of%20Inference%20to%20the%20Best%20Explanation.50766d2d8ec3492d47712e9fccbfd291.webm"
388,"thinkagain-005","Think Again: How to Reason and Argue","2015-01-05","2015-05-05","Week 7 - Inductive Arguments","https://class.coursera.org/thinkagain-005/lecture/download.mp4?lecture_id=388","Lecture 7-9 - Arguments from Analogy (17:47)","https://class.coursera.org/thinkagain-005/lecture/view?lecture_id=388","https://class.coursera.org/thinkagain-005/lecture/subtitles?q=388_en&format=srt","data/thinkagain-005/srt/388.srt","data/thinkagain-005/webm/388.webm","http://d396qusza40orc.cloudfront.net/thinkagain/recoded_videos%2F06_08-Arguments%20From%20Analogy.39c30418e8627ad6335aeb1935d60b95.webm"
